<?xml version="1.0" encoding="UTF-8"?>
<svg version="1.0" xmlns="http://www.w3.org/2000/svg" xmlns:xlink="http://www.w3.org/1999/xlink" width="810" height="450">
	<rect width="810" height="450" fill="#bf0a30"/>
	<rect y="150" width="810" height="150" fill="#fff"/>
	<rect width="300" height="300" fill="#002868"/>
	<g id="s" transform="translate(150,54.5)" fill="#fff">
		<g id="c">
			<path id="t" d="M 0,-22 v 22 h 11" transform="rotate(18 0,-22)"/>
			<use xlink:href="#t" transform="scale(-1,1)"/>
		</g>
		<use xlink:href="#c" transform="rotate(72)"/>
		<use xlink:href="#c" transform="rotate(144)"/>
		<use xlink:href="#c" transform="rotate(216)"/>
		<use xlink:href="#c" transform="rotate(288)"/>
	</g>
	<use xlink:href="#s" transform="rotate(51.428571 150,150)"/>
	<use xlink:href="#s" transform="rotate(102.857143 150,150)"/>
	<use xlink:href="#s" transform="rotate(154.285714 150,150)"/>
	<use xlink:href="#s" transform="rotate(205.714286 150,150)"/>
	<use xlink:href="#s" transform="rotate(257.142857 150,150)"/>
	<use xlink:href="#s" transform="rotate(308.571429 150,150)"/>
</svg>