<?xml version="1.0" encoding="UTF-8"?>
<!-- Generator: Adobe Illustrator 23.1.0, SVG Export Plug-In . SVG Version: 6.00 Build 0)  -->
<svg version="1.1" id="Layer_2" xmlns="http://www.w3.org/2000/svg" xmlns:xlink="http://www.w3.org/1999/xlink" x="0px" y="0px" width="999.980957px" height="1000px" viewBox="0 0 999.980957 1000" enable-background="new 0 0 999.980957 1000" xml:space="preserve">
<path fill="#FFFFFF" d="M999.980957,499.9956055C999.980957,776.1435547,776.1245117,1000,500.0043945,1000  C223.855957,1000,0,776.1435547,0,499.9956055S223.855957,0.0195313,500.0043945,0.0195313  C776.1245117,0.0195313,999.980957,223.8476563,999.980957,499.9956055"/>
<path fill="#00704A" d="M550.2802734,216.1811523c-4.3896484-0.8012695-25.5107422-4.3349609-50.2763672-4.3349609  s-45.8867188,3.5336914-50.3041992,4.3349609c-2.4848633,0.4135742-3.4511719-2.0151367-1.5458984-3.4511719  c1.7392578-1.2705078,51.8500977-39.4262695,51.8500977-39.4262695s50.0830078,38.1557617,51.7949219,39.4262695  C553.7592773,214.1660156,552.7929688,216.5947266,550.2802734,216.1811523 M463.6977539,463.7529297  c0,0-2.6230469,0.9667969-3.3408203,3.2861328c10.519043,8.0898438,17.7529297,26.4223633,39.6469727,26.4223633  c21.8388672,0,29.1000977-18.3325195,39.5917969-26.4223633c-0.7177734-2.3193359-3.3129883-3.2861328-3.3129883-3.2861328  s-13.722168,3.2304688-36.2788086,3.2304688S463.6977539,463.7529297,463.6977539,463.7529297 M500.0039063,432.8588867  c-6.0742188,0-7.4267578-2.2919922-11.5683594-2.2641602c-3.9482422,0.027832-11.6235352,3.1201172-13.2797852,6.0463867  c0.1103516,1.4633789,0.6347656,2.7607422,1.684082,3.9204102c8.8901367,1.3530273,12.8657227,6.2949219,23.1640625,6.2949219  c10.2705078,0,14.2739258-4.9418945,23.1367188-6.2949219c1.0493164-1.159668,1.6010742-2.4570313,1.684082-3.9204102  c-1.6567383-2.9262695-9.3041992-6.0185547-13.2524414-6.0463867  C507.4306641,430.5668945,506.0776367,432.8588867,500.0039063,432.8588867 M999.2348633,527.4204102  c-0.6621094,11.9550781-1.7119141,23.7988281-3.203125,35.5332031  c-56.5712891,9.3598633-76.8359375-41.0825195-134.7880859-38.5698242  c3.4794922,12.2861328,6.2675781,24.8481445,8.4208984,37.6313477c47.8466797-0.027832,67.1181641,44.644043,120.2939453,38.0727539  c-2.7607422,13.6943359-6.1298828,27.1669922-10.0498047,40.4199219  c-42.0488281,4.1689453-56.8476563-37.6318359-105.5224609-36.5263672  c0.3857422,6.9570313,0.6064453,13.9423828,0.6064453,21.0380859c0,3.8925781-0.1103516,7.7861328-0.2207031,11.6787109  c41.4970703-0.4970703,55.0253906,37.8242188,94.5625,36.0576172  c-4.9423828,13.4179688-10.4921875,26.5878906-16.5380859,39.4257813  c-28.4375-1.5175781-38.2119141-37.9628906-81.4472656-35.0644531c-1.3251953,9.3046875-2.9267578,18.5820313-4.9150391,27.6933594  c37.5761719-2.6513672,45.6386719,31.9433594,72.5292969,34.7041016c-6.8466797,12.5625-14.21875,24.7099609-22.0869141,36.5546875  c-15.9580078-8.5302734-29.7626953-34.2900391-59.9394531-35.8916016  c3.0917969-9.5810547,5.7978516-19.2158203,8.1445313-29.1005859c-26.8642578,0-57.5107422-10.4638672-83.1865234-33.8759766  c8.3095703-47.4335938-65.3237305-95.7216797-65.3237305-130.4819336c0-37.6865234,19.1054688-58.5874023,19.1054688-109.4428711  c0-37.7421875-18.3325195-78.6865234-45.9418945-106.6826172c-5.3837891-5.4389648-10.8779297-9.8286133-17.1728516-13.7768555  c25.4003906,31.3916016,44.9204102,68.6918945,44.9204102,111.8452148c0,47.9023438-22.2807617,73.1918945-22.2807617,117.421875  c0,44.1748047,64.6333008,82.4423828,64.6333008,127.9697266c0,17.9736328-5.715332,35.4775391-24.6000977,69.8789063  c29.0175781,28.9892578,66.8417969,44.7822266,91.2216797,44.7822266c7.9228516,0,12.1748047-2.3740234,15.0185547-8.5869141  c2.4296875-5.3837891,4.7216797-10.8222656,6.9306641-16.3164063c26.2558594,1.0205078,38.2939453,24.9580078,52.84375,34.4833984  c-7.9511719,10.6845703-16.3447266,21.0664063-25.125,31.0878906c-9.7451172-10.7949219-22.859375-28.9892578-42.0478516-34.0419922  c-3.3964844,6.6816406-7.0957031,13.2529297-10.90625,19.7128906c16.5107422,4.5009766,27.8583984,21.1494141,36.5830078,32.0820313  c-9.4150391,9.8007813-19.2441406,19.1611328-29.4316406,28.1621094  c-6.3779297-9.9121094-16.3447266-22.5566406-27.4716797-29.3222656  c-4.1142578,5.578125-8.3935547,11.0166016-12.8378906,16.2910156c9.4970703,6.4326172,17.8623047,17.9179688,23.2744141,27.3603516  c-11.7617188,9.4697266-23.9921875,18.4697266-36.6098633,26.8916016  c-6.2397461-50.8007813-75.5668945-85.5888672-56.8754883-144.5351563  c-6.1015625,10.3535156-13.4453125,23.3857422-13.4453125,38.984375c0,42.6835938,45.4169922,76.5058594,49.0615234,118.9130859  c-9.4423828,5.6044922-19.050293,10.90625-28.8520508,15.9306641  c-1.6289063-46.6044922-49.7792969-97.5439453-49.7792969-135.8378906c0-42.6289063,55.9086914-85.5048828,55.9086914-135.9199219  c0-50.3867188-64.4677734-85.2851563-64.4677734-129.5429688c0-44.2304688,27.3886719-69.6860352,27.3886719-126.3676758  c0-41.5249023-19.6855469-83.5732422-50.1938477-110.4370117c-5.3837891-4.7495117-10.6572266-8.5595703-17.0625-11.8447266  c28.7412109,34.456543,45.3896484,65.7651367,45.3896484,113.2260742c0,53.2856445-31.3916016,82.8823242-31.3916016,135.1191406  c0,52.1538086,63.2529297,81.199707,63.2529297,129.847168c0,48.6748047-58.918457,89.7021484-58.918457,139.6474609  c0,45.5,51.9331055,90.9443359,52.7060547,144.8935547c-11.375,4.9423828-22.9155273,9.4707031-34.7045898,13.5839844  c6.6259766-54.5283203-51.8227539-110.7685547-51.8227539-155.2470703c0-48.6484375,61.0996094-90.3935547,61.0996094-142.8779297  c0-52.4296875-62.1210938-76.8369141-62.1210938-130.6474609s38.15625-83.628418,38.15625-143.0991211  c0-46.328125-22.8881836-88.0180664-56.3505859-113.8608398c-0.6904297-0.5239258-1.3808594-1.0766602-2.1259766-1.6005859  c-3.1474609-2.3198242-5.6875,0.4960938-3.4790039,3.2851563c23.6337891,29.5419922,36.3061523,59.4150391,36.3061523,103.6728516  c0,54.3901367-43.7880859,98.5654297-43.7880859,151.2993164c0,62.1479492,58.8076172,79.956543,58.8076172,130.9506836  c0,51.0214844-63.0595703,91.8554688-63.0595703,145.9970703c0,50.2216797,59.6914063,105.9648438,49.4482422,163.9990234  c-11.9824219,3.0927734-24.1303711,5.7431641-36.4165039,7.9794922  c11.1542969-72.1982422-47.3222656-124.0478516-47.3222656-171.2871094c0-51.1328125,65.2680664-96.7158203,65.2680664-146.6884766  c0-47.0742188-46.8530273-62.4804688-53.0097656-110.7138672c-0.855957-6.5703125-6.1293945-11.4575195-13.4179688-10.215332  c-9.5253906,1.7397461-21.7011719,8.0068359-40.8618164,8.0068359s-31.3642578-6.2670898-40.9169922-8.0068359  c-7.2333984-1.2421875-12.534668,3.6450195-13.390625,10.215332  c-6.1289063,48.2333984-53.0097656,63.6396484-53.0097656,110.7138672c0,49.9726563,65.2685547,95.5556641,65.2685547,146.6884766  c0,47.2392578-58.5043945,99.0888672-47.3227539,171.2871094c-12.3134766-2.2363281-24.434082-4.8867188-36.3886719-7.9794922  c-10.2431641-58.0341797,49.4482422-113.7773438,49.4482422-163.9990234c0-54.1416016-63.0874023-94.9755859-63.0874023-145.9970703  c0-50.9941406,58.8076172-68.8027344,58.8076172-130.9506836c0-52.7338867-43.7880859-96.9091797-43.7880859-151.2993164  c0-44.2578125,12.6450195-74.1308594,36.3339844-103.6728516c2.2084961-2.7890625-0.3588867-5.6049805-3.5341797-3.2851563  c-0.7177734,0.5239258-1.4082031,1.0766602-2.1259766,1.6005859  c-33.4072266,25.8427734-56.2954102,67.5327148-56.2954102,113.8608398c0,59.4707031,38.1289063,89.2885742,38.1289063,143.0991211  s-62.1210938,78.2177734-62.1210938,130.6474609c0,52.484375,61.0991211,94.2294922,61.0991211,142.8779297  c0,44.4785156-58.4208984,100.71875-51.8500977,155.2470703c-11.7617188-4.1132813-23.3300781-8.6416016-34.7050781-13.5839844  c0.8007813-53.9492188,52.706543-99.3935547,52.706543-144.8935547c0-49.9453125-58.8632813-90.9726563-58.8632813-139.6474609  c0-48.6474609,63.2529297-77.6933594,63.2529297-129.847168c0-52.2368164-31.4194336-81.8334961-31.4194336-135.1191406  c0-47.4609375,16.6484375-78.7695313,45.4174805-113.2260742c-6.4052734,3.2851563-11.706543,7.0952148-17.1176758,11.8447266  c-30.480957,26.8637695-50.2216797,68.9121094-50.2216797,110.4370117c0,56.6816406,27.4438477,82.137207,27.4438477,126.3676758  c0,44.2578125-64.4677734,79.15625-64.4677734,129.5429688c0,50.4150391,55.9086914,93.2910156,55.9086914,135.9199219  c0,38.2939453-48.1225586,89.2333984-49.7514648,135.8378906c-9.8291016-5.0244141-19.4648438-10.3261719-28.9072266-15.9306641  c3.6445313-42.4072266,49.0893555-76.2294922,49.0893555-118.9130859c0-15.5986328-7.3442383-28.6308594-13.4458008-38.984375  c18.6914063,58.9462891-50.6352539,93.734375-56.875,144.5351563c-12.6450195-8.421875-24.8486328-17.421875-36.6376953-26.8916016  c5.4389648-9.4423828,13.8046875-20.9277344,23.2749023-27.3603516  c-4.4174805-5.2744141-8.6972656-10.7128906-12.8110352-16.2910156  c-11.1538086,6.765625-21.0932617,19.4101563-27.4711914,29.3222656  c-10.1879883-9.0009766-20.0166016-18.3613281-29.4316406-28.1621094  c8.7524414-10.9326172,20.0444336-27.5810547,36.5551758-32.0820313c-3.8100586-6.4599609-7.4545898-13.03125-10.878418-19.7128906  c-19.1884766,5.0527344-32.3027344,23.2470703-42.0488281,34.0419922  c-8.7797852-10.0214844-17.2006836-20.4033203-25.1518555-31.0878906  c14.5498047-9.5253906,26.5600586-33.4628906,52.871582-34.4833984c2.1811523,5.4941406,4.5004883,10.9326172,6.9296875,16.3164063  c2.84375,6.2128906,7.0957031,8.5869141,14.9921875,8.5869141c24.4067383,0,62.230957-15.7929688,91.2485352-44.7822266  c-18.9121094-34.4013672-24.6274414-51.9052734-24.6274414-69.8789063c0-45.5273438,64.6884766-83.7949219,64.6884766-127.9697266  c0-44.2299805-22.3081055-69.5195313-22.3081055-117.421875c0-43.1533203,19.5195313-80.4536133,44.9199219-111.8452148  c-6.2944336,3.9482422-11.7612305,8.3378906-17.1450195,13.7768555  c-27.6645508,27.9960938-45.9697266,68.9404297-45.9697266,106.6826172c0,50.8554688,19.0507813,71.7563477,19.0507813,109.4428711  c0,34.7602539-73.5791016,83.0483398-65.2412109,130.4819336c-25.7041016,23.4121094-56.3779297,33.8759766-83.1865234,33.8759766  c2.3466797,9.8847656,5.0527344,19.5195313,8.1450195,29.1005859  c-30.2324219,1.6015625-44.0644531,27.3613281-59.9677734,35.8916016  c-7.8408203-11.8447266-15.2402344-23.9921875-22.0874023-36.5546875  c26.8637695-2.7607422,34.9536133-37.3554688,72.5297852-34.7041016c-1.987793-9.1113281-3.6445313-18.3886719-4.9418945-27.6933594  c-43.2089844-2.8984375-53.0375977,33.546875-81.4199219,35.0644531  c-6.0742188-12.8378906-11.5683594-26.0078125-16.5380859-39.4257813  c39.5639648,1.8222656,53.0375977-36.5546875,94.5341797-36.0576172c-0.1103516-3.8925781-0.1655273-7.7861328-0.1655273-11.6787109  c0-7.0957031,0.1933594-14.0810547,0.5795898-21.0380859c-48.675293-1.1054688-63.4736328,40.6953125-105.550293,36.5263672  c-3.8652344-13.2529297-7.2333984-26.7255859-10.0219727-40.4199219  c53.1479492,6.5712891,72.4467773-38.1005859,120.2661133-38.0727539  c2.1533203-12.7832031,4.9692383-25.3452148,8.4482422-37.6313477  c-57.9794922-2.5126953-78.2172852,47.9296875-134.7885742,38.5698242  c-1.5185547-11.734375-2.5400391-23.578125-3.2026367-35.5332031  c65.7929688,7.3442383,90.4477539-46.7426758,150.3325195-40.1166992  c5.6601563-14.3286133,12.230957-28.1889648,19.6025391-41.496582  C95.6108398,432.6381836,70.0996094,495.3930664,0.2207031,485.7578125C7.7578125,216.2080078,228.6323242,0,500.0039063,0  s492.2456055,216.2080078,499.7553711,485.7578125c-69.8789063,9.6352539-95.3896484-53.1196289-170.4873047-39.9506836  c7.3720703,13.3076172,13.9707031,27.1679688,19.6308594,41.496582  C908.7866211,480.6777344,933.4145508,534.7646484,999.2348633,527.4204102 M285.0654297,317.7275391  c-36.8032227-15.0742188-81.3642578-11.5952148-119.465332,12.8662109  c-5.8808594-35.4223633-25.0693359-66.8696289-52.4575195-85.8647461c-3.8100586-2.6225586-7.7304688-0.1103516-7.3994141,4.2797852  c5.7978516,74.8208008-37.9628906,139.8129883-91.7456055,196.9086914  c55.4394531,16.6484375,102.6513672-54.7211914,174.5185547-29.7905273  C214.3857422,377.6679688,247.1582031,344.2880859,285.0654297,317.7275391 M500.0039063,272.4765625  c-46.4111328,0-85.2851563,26.2563477-95.4731445,60.1601563c-0.8007813,2.5952148,0.2485352,4.2797852,3.2856445,2.9262695  c8.3378906-3.7543945,17.8359375-5.5766602,28.1616211-5.5766602c18.9399414,0,35.6157227,6.9853516,45.472168,19.050293  c4.3901367,14.4121094,4.7490234,35.2573242-0.1928711,47.1567383c-7.7861328-1.7387695-10.6020508-7.7861328-18.1948242-7.7861328  c-7.6201172,0-13.5283203,5.3564453-26.421875,5.3564453c-12.9208984,0-14.4394531-6.1010742-22.8881836-6.1010742  c-9.9946289,0-11.8442383,10.2978516-11.8442383,21.894043c0,51.7119141,47.5429688,122.8608398,98.0957031,122.8608398  s98.0957031-71.1489258,98.0957031-122.8608398c0-11.5961914-2.4018555-21.5351563-12.8383789-22.8881836  c-5.1904297,3.7275391-9.9667969,7.0952148-21.894043,7.0952148c-12.9208984,0-16.4829102-5.3564453-24.1030273-5.3564453  c-9.1660156,0-8.2548828,19.3544922-19.1606445,20.4594727c-7.2338867-17.4775391-7.6201172-39.8681641-1.5737305-59.8300781  c9.8564453-12.0649414,26.5600586-19.050293,45.472168-19.050293c10.2983398,0,19.9067383,1.8222656,28.1616211,5.5766602  c3.0097656,1.3535156,4.0585938-0.3310547,3.3129883-2.9262695  C585.2612305,298.7329102,546.4150391,272.4765625,500.0039063,272.4765625 M573.8862305,346.6621094  c-11.1264648,0-24.1582031,3.4233398-32.3857422,12.5351563c-0.8833008,2.484375-0.8833008,6.1845703,0.359375,8.6689453  c20.1542969-6.9301758,37.9902344-7.1787109,46.5488281,2.4301758c4.5834961-4.1689453,6.0742188-7.9521484,6.0742188-12.2866211  C594.4829102,351.3007813,587.6635742,346.6621094,573.8862305,346.6621094 M411.5712891,370.2963867  c9.7182617-9.7460938,30.2324219-9.3603516,51.5463867-1.4912109c0.9116211-10.6020508-18.0288086-22.1430664-36.9960938-22.1430664  c-13.7773438,0-20.6245117,4.6386719-20.6245117,11.3476563  C405.4970703,362.3442383,406.9604492,366.1274414,411.5712891,370.2963867 M731.3974609,195.2524414  c-36.6376953,2.5961914-68.4711914,15.1860352-94.203125,36.1416016  c10.9335938-31.0058594,24.8208008-58.090332,42.3803711-84.4018555  c-46.6044922,4.9414063-85.644043,22.0322266-114.109375,51.159668l-22.2807617-58.3930664l49.4760742-43.7060547  l-66.2348633-4.6660156l-26.421875-61.5683594l-26.421875,61.5683594l-66.2348633,4.6660156l49.4482422,43.7060547  l-22.2807617,58.3930664c-28.465332-29.1274414-67.4770508-46.2182617-114.109375-51.159668  c17.5322266,26.3115234,31.4472656,53.3959961,42.3803711,84.4018555  c-25.7314453-20.9555664-57.5649414-33.5454102-94.2304688-36.1416016  c21.9770508,28.2446289,41.496582,58.3945313,55.9086914,90.7524414c1.6289063,3.671875,5.1352539,4.8588867,8.9458008,2.9819336  c50.1660156-24.9316406,106.7646484-38.9848633,166.5942383-38.9848633c59.8291016,0,116.3730469,14.0532227,166.5942383,38.9848633  c3.8100586,1.8769531,7.2612305,0.6899414,8.8901367-2.9819336  C689.9282227,253.6469727,709.3925781,223.4970703,731.3974609,195.2524414 M811.4086914,416.1269531  c71.921875-24.9306641,119.1064453,46.4389648,174.5458984,29.7905273  c-53.7832031-57.0957031-97.515625-122.0878906-91.7460938-196.9086914c0.359375-4.3901367-3.6162109-6.9023438-7.34375-4.2797852  c-27.3876953,18.9951172-46.6035156,50.4423828-52.5126953,85.8647461  c-38.0732422-24.4614258-82.6342773-27.9404297-119.4375-12.8662109  C752.8222656,344.2880859,785.5668945,377.6679688,811.4086914,416.1269531"/>
</svg>